animal-crossing
…
## 
## Attaching package: 'lubridate'

## The following objects are masked from 'package:base':
## 
##     date, intersect, setdiff, union

user_review_words <- user_reviews %>%
  unnest_tokens(word, text) %>%
  anti_join(stop_words, by = 'word') %>%
  count(user_name, date, grade, word)

user_review_words

## # A tibble: 88,346 x 5
##    user_name    date       grade word              n
##    <chr>        <date>     <dbl> <chr>         <int>
##  1 000anon2759  2020-04-01     0 anti              1
##  2 000anon2759  2020-04-01     0 console           1
##  3 000anon2759  2020-04-01     0 consumer          1
##  4 000anon2759  2020-04-01     0 disappointing     1
##  5 000anon2759  2020-04-01     0 greedy            1
##  6 000anon2759  2020-04-01     0 island            1
##  7 000anon2759  2020-04-01     0 practice          1
##  8 000anon2759  2020-04-01     0 unfair            1
##  9 000PLAYER000 2020-03-20    10 playing           1
## 10 000PLAYER000 2020-03-20    10 stop              1
## #  with 88,336 more rows
…
